{
    "plugins": [
        ["@babel/plugin-proposal-class-properties"],
        "@babel/plugin-syntax-dynamic-import",       
        ["lodash"]
    ],
    "presets": [
        [
            "@babel/preset-env",
            {
                "targets": {
                    "chrome": "58"
                }
            }
        ],
        "@babel/preset-react"
    ]
}
